…
instacart_skim = instacart |>
  group_by(aisle) |> 
  count(aisle, name = "n_times") |> 
  arrange(desc(n_times))
instacart_skim
## # A tibble: 134 × 2
## # Groups:   aisle [134]
##    aisle                         n_times
##    <chr>                           <int>
##  1 fresh vegetables               150609
##  2 fresh fruits                   150473
##  3 packaged vegetables fruits      78493
##  4 yogurt                          55240
##  5 packaged cheese                 41699
##  6 water seltzer sparkling water   36617
##  7 milk                            32644
##  8 chips pretzels                  31269
##  9 soy lactosefree                 26240
## 10 bread                           23635
## # ℹ 124 more rows
```
…
#filter obs
zori_counts = left_join(zip_counts,zori_zip, by = "zip_code") |> 
  filter(n_obs < 10 | n_obs == 116) |> 
  group_by(zip_code) |> 
  arrange(n_obs) |> 
  distinct(zip_code, zori_county, n_obs)
zori_counts
## # A tibble: 73 × 3
## # Groups:   zip_code [73]
##    zip_code zori_county     n_obs
##       <dbl> <chr>           <int>
##  1    10453 Bronx County        1
##  2    10470 Bronx County        1
##  3    11366 Queens County       1
##  4    11369 Queens County       1
##  5    11426 Queens County       1
##  6    11693 Queens County       1
##  7    10162 New York County     2
##  8    10303 Richmond County     2
##  9    10459 Bronx County        2
## 10    10460 Bronx County        2
## # ℹ 63 more rows
```
…
